{
	"info": {
		"_postman_id": "06f5bb3f-1e37-43e0-96b5-e33a7ab38a58",
		"name": "Modules Collection",
		"schema": "https://schema.getpostman.com/json/collection/v2.1.0/collection.json"
	},
	"item": [
		{
			"name": "GET All Task Request",
			"request": {
				"method": "GET",
				"header": [],
				"url": {
					"raw": "localhost:3001/tasks",
					"host": [
						"localhost"
					],
					"port": "3001",
					"path": [
						"tasks"
					]
				}
			},
			"response": []
		},
		{
			"name": "POST New Task",
			"request": {
				"method": "POST",
				"header": [],
				"body": {
					"mode": "raw",
					"raw": "{\r\n    \"name\": \"Cook\"\r\n}",
					"options": {
						"raw": {
							"language": "json"
						}
					}
				},
				"url": {
					"raw": "localhost:3001/tasks",
					"host": [
						"localhost"
					],
					"port": "3001",
					"path": [
						"tasks"
					]
				}
			},
			"response": []
		},
		{
			"name": "Delete Task",
			"request": {
				"method": "DELETE",
				"header": [],
				"body": {
					"mode": "raw",
					"raw": "",
					"options": {
						"raw": {
							"language": "json"
						}
					}
				},
				"url": {
					"raw": "localhost:3001/tasks/617b6462d0a7e3c2084b399a",
					"host": [
						"localhost"
					],
					"port": "3001",
					"path": [
						"tasks",
						"617b6462d0a7e3c2084b399a"
					]
				}
			},
			"response": []
		},
		{
			"name": "Update Task",
			"request": {
				"method": "PUT",
				"header": [],
				"body": {
					"mode": "raw",
					"raw": "{\r\n    \"status\": \"pending\"\r\n}",
					"options": {
						"raw": {
							"language": "json"
						}
					}
				},
				"url": {
					"raw": "localhost:3001/tasks/617a4b35e98673d4728777b7",
					"host": [
						"localhost"
					],
					"port": "3001",
					"path": [
						"tasks",
						"617a4b35e98673d4728777b7"
					]
				}
			},
			"response": []
		},
		{
			"name": "getting a specific task",
			"request": {
				"method": "GET",
				"header": [],
				"url": {
					"raw": "localhost:3001/tasks/617a4b35e98673d4728777b7",
					"host": [
						"localhost"
					],
					"port": "3001",
					"path": [
						"tasks",
						"617a4b35e98673d4728777b7"
					]
				}
			},
			"response": []
		},
		{
			"name": "changing the status of a task",
			"request": {
				"method": "PUT",
				"header": [],
				"url": {
					"raw": "localhost:3001/tasks/617a4b35e98673d4728777b7",
					"host": [
						"localhost"
					],
					"port": "3001",
					"path": [
						"tasks",
						"617a4b35e98673d4728777b7"
					]
				}
			},
			"response": []
		}
	]
}